…
Now we have got the data from all 7 waves in the same data frame
**all7** in the wide format. Note that the panel is unbalanced, i.e. we
included all people who participated in at least one wave of the survey.
Reshape the data to the long format. The resulting data frame should
have six columns for six variables.

``` r
Long <- all7 %>%
  pivot_longer(a_memorig:g_vote6, names_to = "variable", values_to = "value") %>%
  separate(variable, into = c("wave", "variable"), sep = "_", extra = "merge") %>%
  pivot_wider(names_from = variable, values_from = value)
Long
```

    ## # A tibble: 584,234 x 6
    ##        pidp wave  memorig sex_dv age_dv vote6
    ##       <int> <chr>   <int>  <int>  <int> <int>
    ##  1 68001367 a           1      1     39     3
    ##  2 68001367 b          NA     NA     NA    NA
    ##  3 68001367 c          NA     NA     NA    NA
    ##  4 68001367 d          NA     NA     NA    NA
    ##  5 68001367 e          NA     NA     NA    NA
    ##  6 68001367 f          NA     NA     NA    NA
    ##  7 68001367 g          NA     NA     NA    NA
    ##  8 68004087 a           1      1     59     2
    ##  9 68004087 b           1      1     60     2
    ## 10 68004087 c           1      1     61     2
    ## # … with 584,224 more rows
…
``` r
Long <- Long %>%
        filter(memorig == 1) %>%
        mutate(sex_dv = ifelse(sex_dv == 2, "female",
                           ifelse(sex_dv == 1, "male", NA)),
        vote6 = ifelse(vote6 < 0, NA, vote6))
Long
```

    ## # A tibble: 218,015 x 6
    ##        pidp wave  memorig sex_dv age_dv vote6
    ##       <int> <chr>   <int> <chr>   <int> <int>
    ##  1 68001367 a           1 male       39     3
    ##  2 68004087 a           1 male       59     2
    ##  3 68004087 b           1 male       60     2
    ##  4 68004087 c           1 male       61     2
    ##  5 68004087 d           1 male       62     1
    ##  6 68004087 e           1 male       63     2
    ##  7 68004087 f           1 male       64     2
    ##  8 68004087 g           1 male       65     2
    ##  9 68006127 a           1 female     39     4
    ## 10 68006127 b           1 female     40     4
    ## # … with 218,005 more rows
…
<!-- end list -->

``` r
DeltaLong <- Long %>%
  filter(!is.na(vote6))
DeltaLong
```

    ## # A tibble: 200,891 x 6
    ##        pidp wave  memorig sex_dv age_dv vote6
    ##       <int> <chr>   <int> <chr>   <int> <int>
    ##  1 68001367 a           1 male       39     3
    ##  2 68004087 a           1 male       59     2
    ##  3 68004087 b           1 male       60     2
    ##  4 68004087 c           1 male       61     2
    ##  5 68004087 d           1 male       62     1
    ##  6 68004087 e           1 male       63     2
    ##  7 68004087 f           1 male       64     2
    ##  8 68004087 g           1 male       65     2
    ##  9 68006127 a           1 female     39     4
    ## 10 68006127 b           1 female     40     4
    ## # … with 200,881 more rows
